Rk,,war_reg_season
0,Andrew Bogut,7.190148912
1,Carlos Delfino,4.780944514
2,Ersan Ilyasova,4.591804193
3,Brandon Jennings,4.544639741
4,John Salmons,3.667773818
5,Luke Ridnour,3.175741569
6,Luc Richard Mbah a Moute,2.649980573
7,Charlie Bell,1.314394126
8,Michael Redd,0.219422303
9,Jerry Stackhouse,0.171064559
10,Dan Gadzuric,0.159863571
11,Royal Ivey,0.151446746
12,Kurt Thomas,0.0696064
13,Roko Ukic,0.048065287
14,Darnell Jackson,-0.028853509
15,Francisco Elson,-0.046050262
16,Primoz Brezec,-0.082470206
17,Jodie Meeks,-0.322206918
18,Hakim Warrick,-0.384513526
