Rk,,predator_total
0,Kobe Bryant,5.055615822
1,Lamar Odom,2.806904143
2,Pau Gasol,2.76756526
3,Ron Artest,2.515402799
4,Andrew Bynum,1.063309914
5,Derek Fisher,-0.00149494
6,Sasha Vujacic,-0.769597381
7,Jordan Farmar,-0.790495098
8,Shannon Brown,-1.604613457
9,Luke Walton,-3.488093056
10,D.J. Mbenga,-4.584222872
11,Adam Morrison,-6.323381005
12,Josh Powell,-7.986415763
