Rk,,Age,G,GS,MP,FG,FGA,FG%,3P,3PA,3P%,2P,2PA,2P%,eFG%,FT,FTA,FT%,ORB,DRB,TRB,AST,STL,BLK,TOV,PF,PTS/G
1,Chris Paul,24,45,45,38.0,7.0,14.2,.493,1.2,2.8,.409,5.8,11.3,.514,.534,3.6,4.2,.847,0.4,3.8,4.2,10.7,2.1,0.2,2.5,2.6,18.7
2,David West,29,81,81,36.4,7.6,15.1,.505,0.1,0.3,.259,7.6,14.8,.510,.508,3.7,4.2,.865,2.0,5.4,7.5,3.0,0.9,0.7,2.1,2.9,19.0
3,Peja Stojakovic,32,62,55,31.4,4.5,11.1,.404,2.1,5.7,.375,2.4,5.4,.435,.500,1.5,1.7,.897,0.6,3.0,3.7,1.5,0.8,0.1,0.9,1.3,12.6
4,Emeka Okafor,27,82,82,28.9,4.2,8.0,.530,0.0,0.0,,4.2,8.0,.530,.530,1.9,3.3,.562,3.1,6.0,9.0,0.7,0.7,1.5,1.4,2.7,10.4
5,Darren Collison,22,76,37,27.8,4.9,10.4,.477,0.6,1.5,.400,4.3,8.9,.490,.506,1.9,2.3,.851,0.5,2.0,2.5,5.7,1.0,0.1,2.7,1.2,12.4
6,Marcus Thornton,22,73,17,25.6,5.5,12.1,.451,1.6,4.3,.374,3.8,7.8,.493,.517,2.0,2.4,.814,1.0,1.9,2.9,1.6,0.8,0.2,1.0,1.7,14.5
7,Devin Brown,31,39,37,24.8,3.3,8.3,.394,1.4,3.8,.367,1.9,4.6,.416,.477,1.8,2.2,.802,0.7,2.1,2.8,1.5,0.8,0.1,1.5,1.6,9.7
8,James Posey,33,77,2,22.5,1.6,4.5,.365,1.1,3.1,.335,0.6,1.3,.437,.483,0.9,1.0,.825,0.4,3.9,4.3,1.5,0.5,0.2,0.7,2.6,5.2
9,Morris Peterson,32,46,39,21.2,2.5,6.5,.385,1.3,3.7,.363,1.2,2.8,.415,.488,0.7,1.2,.611,0.4,2.4,2.7,0.9,0.5,0.1,0.6,1.8,7.1
10,Darius Songaila,31,75,1,18.8,3.2,6.5,.494,0.0,0.1,.167,3.2,6.4,.498,.495,0.8,1.0,.811,0.8,2.3,3.1,0.9,0.8,0.2,1.1,2.7,7.2
11,Bobby Brown,25,22,0,14.9,2.7,6.9,.395,0.8,3.0,.258,2.0,3.9,.500,.451,0.4,0.4,1.000,0.0,0.8,0.8,2.1,0.4,0.0,1.1,1.3,6.6
12,Hilton Armstrong,25,18,0,13.3,1.1,2.8,.380,0.0,0.0,,1.1,2.8,.380,.380,0.7,1.6,.464,0.9,2.4,3.4,0.9,0.4,0.4,0.7,2.4,2.8
13,Julian Wright,22,68,14,12.8,1.7,3.4,.500,0.0,0.1,.333,1.7,3.3,.504,.504,0.4,0.6,.610,0.9,1.3,2.1,0.6,0.4,0.3,0.6,0.7,3.8
14,Aaron Gray,25,24,0,10.9,1.4,2.5,.557,0.0,0.0,,1.4,2.5,.557,.557,0.8,0.9,.857,1.7,2.1,3.8,0.8,0.4,0.5,0.7,1.8,3.6
15,Sean Marks,34,14,0,5.4,0.3,0.6,.500,0.0,0.0,,0.3,0.6,.500,.500,0.1,0.4,.400,1.0,0.6,1.6,0.1,0.0,0.2,0.1,1.2,0.7
16,Jason Hart,31,4,0,4.3,0.3,0.3,1.000,0.0,0.0,,0.3,0.3,1.000,1.000,0.0,0.0,,0.0,0.5,0.5,1.3,0.3,0.3,0.8,1.0,0.5
