Rk,,predator_total
0,Jason Hart,8.322177722
1,Kevin Love,1.531114909
2,Corey Brewer,0.079482573
3,Ryan Gomes,-0.663782479
4,Damien Wilkins,-1.255620229
5,Al Jefferson,-1.672539118
6,Brian Cardinal,-2.372434366
7,Darko Milicic,-2.374582716
8,Ramon Sessions,-2.842738042
9,Oleksiy Pecherov,-3.946794166
10,Nathan Jawai,-4.020359886
11,Wayne Ellington,-4.719423008
12,Jonny Flynn,-4.74004954
13,Ryan Hollins,-6.118597689
14,Sasha Pavlovic,-7.721121883
15,Alando Tucker,-10.28624639
