Rk,,Age,G,GS,MP,FG,FGA,FG%,3P,3PA,3P%,2P,2PA,2P%,eFG%,FT,FTA,FT%,ORB,DRB,TRB,AST,STL,BLK,TOV,PF,PTS/G
1,Rudy Gay,23,80,80,39.7,7.5,16.1,.466,0.8,2.5,.327,6.7,13.6,.492,.491,3.8,5.0,.753,1.4,4.5,5.9,1.9,1.5,0.8,2.1,2.5,19.6
2,O.J. Mayo,22,82,82,38.0,6.6,14.4,.458,1.7,4.3,.383,5.0,10.1,.490,.516,2.6,3.2,.809,0.7,3.0,3.8,3.0,1.2,0.2,2.1,2.1,17.5
3,Zach Randolph,28,81,81,37.7,8.0,16.5,.488,0.2,0.6,.288,7.9,15.9,.496,.494,4.5,5.7,.778,4.1,7.7,11.7,1.8,1.0,0.4,2.1,2.8,20.8
4,Marc Gasol,25,69,69,35.8,5.5,9.4,.581,0.0,0.0,.000,5.5,9.4,.582,.581,3.7,5.4,.670,3.0,6.3,9.3,2.4,1.0,1.6,2.0,3.7,14.6
5,Mike Conley,22,80,80,32.1,4.6,10.4,.445,1.0,2.7,.387,3.6,7.7,.464,.494,1.7,2.3,.743,0.4,2.0,2.4,5.3,1.4,0.2,2.1,2.2,12.0
6,Allen Iverson,34,3,0,22.3,5.0,8.7,.577,0.3,0.3,1.000,4.7,8.3,.560,.596,2.0,4.0,.500,0.3,1.0,1.3,3.7,0.3,0.0,2.3,1.7,12.3
7,Sam Young,24,80,1,16.5,2.8,6.2,.451,0.1,0.7,.196,2.7,5.5,.483,.462,1.7,2.2,.777,1.0,1.6,2.5,0.7,0.4,0.3,1.2,1.3,7.4
8,Ronnie Brewer,24,5,0,16.0,0.6,2.6,.231,0.0,0.0,,0.6,2.6,.231,.231,0.8,1.0,.800,0.2,1.2,1.4,0.6,1.2,0.0,0.4,0.0,2.0
9,Jamaal Tinsley,31,38,1,15.5,1.4,3.7,.371,0.2,1.0,.179,1.2,2.7,.446,.396,0.6,0.7,.815,0.3,1.4,1.7,2.8,0.9,0.1,1.7,1.8,3.5
10,Darrell Arthur,21,32,1,14.3,2.0,4.6,.432,0.0,0.0,.000,2.0,4.5,.434,.432,0.5,0.9,.567,1.2,2.3,3.4,0.5,0.4,0.4,0.7,1.9,4.5
11,Marcus Williams,24,62,1,14.1,1.7,4.4,.384,0.4,1.3,.296,1.3,3.1,.421,.428,0.6,0.9,.673,0.2,1.3,1.5,2.6,0.5,0.0,1.2,0.7,4.3
12,Hasheem Thabeet,22,68,13,13.0,1.1,1.9,.588,0.0,0.0,,1.1,1.9,.588,.588,0.8,1.4,.581,1.3,2.3,3.6,0.2,0.2,1.3,0.6,2.4,3.1
13,DeMarre Carroll,23,71,1,11.2,1.2,3.1,.396,0.0,0.1,.000,1.2,3.0,.407,.396,0.5,0.7,.623,0.7,1.4,2.1,0.5,0.4,0.1,0.3,1.5,2.9
14,Steven Hunter,28,21,0,7.5,0.8,2.0,.395,0.0,0.0,,0.8,2.0,.395,.395,0.9,1.7,.528,0.9,1.1,2.0,0.0,0.0,0.5,0.4,0.5,2.5
15,Lester Hudson,25,9,0,6.8,1.6,3.9,.400,0.2,1.2,.182,1.3,2.7,.500,.429,0.7,0.8,.857,0.4,0.7,1.1,0.6,0.6,0.1,0.6,0.6,4.0
16,Hamed Haddadi,24,36,0,6.7,0.7,1.7,.387,0.0,0.1,.000,0.7,1.6,.407,.387,0.4,0.5,.737,0.7,1.4,2.1,0.3,0.0,0.4,0.6,1.6,1.7
17,Trey Gilder,25,2,0,2.5,0.5,0.5,1.000,0.0,0.0,,0.5,0.5,1.000,1.000,0.0,0.0,,0.0,0.5,0.5,0.0,0.5,0.0,0.0,0.0,1.0
