Rk,,predator_total
0,Acie Law,4.985170274
1,Stephen Curry,2.110068269
2,C.J. Watson,1.186107303
3,Devean George,0.105783764
4,Kelenna Azubuike,-0.221041179
5,Raja Bell,-0.256615275
6,Anthony Morrow,-0.299007272
7,Monta Ellis,-0.501920099
8,Reggie Williams,-0.732802749
9,Anthony Tolliver,-1.005983897
10,Stephen Jackson,-1.628194488
11,Andris Biedrins,-1.945032156
12,Anthony Randolph,-1.955628078
13,Corey Maggette,-2.122579464
14,Ronny Turiaf,-2.409533025
15,Coby Karl,-2.787033255
16,Cartier Martin,-2.866548269
17,Mikki Moore,-4.274760745
18,Chris Hunter,-4.287514236
19,Vladimir Radmanovic,-4.373491739
