Rk,,predator_total
0,Josh Smith,4.558592808
1,Al Horford,3.197600454
2,Joe Johnson,2.94916539
3,Jamal Crawford,1.759891794
4,Mike Bibby,0.953845007
5,Marvin Williams,-0.176683295
6,Zaza Pachulia,-1.565652906
7,Randolph Morris,-1.80553355
8,Maurice Evans,-1.870061046
9,Mario West,-1.935361796
10,Jeff Teague,-3.553695274
11,Joe Smith,-4.365953462
12,Jason Collins,-7.160532122
13,Othello Hunter,-7.936568885
