Rk,,predator_total
0,Dwyane Wade,8.717580816
1,Quentin Richardson,2.233120066
2,Dorell Wright,1.029622582
3,Jermaine O'Neal,0.350621932
4,Mario Chalmers,0.331154107
5,Michael Beasley,-1.194865004
6,Rafer Alston,-1.497341515
7,James Jones,-2.226312795
8,Carlos Arroyo,-2.412241113
9,Udonis Haslem,-2.537701246
10,Joel Anthony,-3.165441188
11,Daequan Cook,-3.287315758
12,Jamaal Magloire,-3.626547088
13,Shavlik Randolph,-4.018768728
14,Yakhouba Diawara,-6.60930361
