Rk,,predator_total
0,Ben Wallace,2.475863283
1,Rodney Stuckey,0.924896297
2,Jonas Jerebko,0.644850255
3,Tayshaun Prince,-0.73578917
4,Ben Gordon,-1.637097899
5,Charlie Villanueva,-1.910582515
6,Richard Hamilton,-2.335232062
7,Will Bynum,-2.862889427
8,Austin Daye,-3.037320739
9,Jason Maxiell,-3.117524366
10,Chucky Atkins,-4.31872491
11,Chris Wilcox,-5.789150699
12,DaJuan Summers,-5.850704524
13,Kwame Brown,-6.421850465
